<?xml version="1.0" encoding="UTF-8" standalone="no"?>
<!-- Created with Inkscape (http://www.inkscape.org/) -->

<svg
   xmlns:dc="http://purl.org/dc/elements/1.1/"
   xmlns:cc="http://creativecommons.org/ns#"
   xmlns:rdf="http://www.w3.org/1999/02/22-rdf-syntax-ns#"
   xmlns:svg="http://www.w3.org/2000/svg"
   xmlns="http://www.w3.org/2000/svg"
   xmlns:xlink="http://www.w3.org/1999/xlink"
   xmlns:sodipodi="http://sodipodi.sourceforge.net/DTD/sodipodi-0.dtd"
   xmlns:inkscape="http://www.inkscape.org/namespaces/inkscape"
   width="24.51392mm"
   height="41.522881mm"
   viewBox="0 0 86.860346 147.12832"
   id="svg49079"
   version="1.1"
   inkscape:version="0.91 r13725"
   sodipodi:docname="marker-icon-alert.svg"
   inkscape:export-filename="/home/philtweir/Work/Flax_and_Teal/Sync/ORP/preto/ourragingplanet/public/images/leaflet/park/marker-icon-alert.png"
   inkscape:export-xdpi="50.160297"
   inkscape:export-ydpi="50.160297">
  <defs
     id="defs49081">
    <clipPath
       id="clip65">
      <path
         inkscape:connector-curvature="0"
         d="m 473,325 71,0 0,119 -71,0 z m 0,0"
         id="path43697" />
    </clipPath>
    <clipPath
       id="clip66">
      <path
         inkscape:connector-curvature="0"
         d="m 473.97266,360.61328 c 0,-0.63281 0.0195,-1.26172 0.0508,-1.88672 1.42968,20.59766 34.6914,81.65625 34.6914,81.65625 0,0 33.26563,-61.05859 34.69141,-81.65625 0.0312,0.625 0.0547,1.25391 0.0547,1.88672 -0.004,-19.1875 -15.5586,-34.74219 -34.7461,-34.74219 -19.1875,0 -34.74218,15.55469 -34.74218,34.74219 m 1.43359,-0.14844 c 0,-18.39453 14.91406,-33.30859 33.30859,-33.30859 18.39453,0 33.3086,14.91406 33.3086,33.30859 0,0.69141 -0.0274,1.375 -0.0703,2.05469 -1.05859,-17.4375 -15.53125,-31.25391 -33.23828,-31.25391 -17.70312,0 -32.17578,13.81641 -33.23828,31.25391 -0.0391,-0.67969 -0.0703,-1.36328 -0.0703,-2.05469 m 5.30078,0.85938 c 0,-15.46875 12.53906,-28.00781 28.00781,-28.00781 15.28516,0 27.70703,12.24218 28.00391,27.45703 l 0,0.043 c 0,0.008 0,0.0156 0,0.0273 l 0,0.0117 c 0,0.0117 0,0.0195 0,0.0312 l 0,0.0547 c 0,0.008 0,0.0156 0,0.0234 l 0,0.043 c 0,0.0156 0,0.0274 0.004,0.043 l 0,0.082 c 0,0.008 0,0.0156 0,0.0195 l 0,0.17188 c 0,15.46484 -12.53907,28.00781 -28.00782,28.00781 l -0.0742,0 c -0.0234,0 -0.043,0 -0.0625,0 l -0.008,0 c -0.0195,0 -0.0391,0 -0.0547,-0.004 l -0.0156,0 c -0.0195,0 -0.0391,0 -0.0586,0 l -0.0117,0 c -0.0195,0 -0.0352,0 -0.0547,0 -0.004,0 -0.008,0 -0.0117,0 -0.0195,0 -0.0391,0 -0.0625,0 -0.004,0 -0.004,0 -0.008,0 -0.0195,0 -0.0391,0 -0.0586,0 0,-0.004 -0.004,-0.004 -0.008,-0.004 -0.0234,0 -0.043,0 -0.0625,0 l -0.0117,0 c -0.0195,0 -0.0391,0 -0.0586,0 l -0.004,0 c -0.0234,0 -0.043,0 -0.0664,0 -0.004,0 -0.004,-0.004 -0.004,-0.004 -0.0469,0 -0.0898,0 -0.13281,0 l -0.008,0 c -0.043,-0.004 -0.0899,-0.004 -0.13282,-0.004 l -0.004,0 C 492.72573,388.8003 480.7062,376.46436 480.7062,361.32374 m 28.00781,82.25 c 0,0 34.7461,-63.76953 34.7461,-82.96094 0,19.19141 -34.7461,82.96094 -34.7461,82.96094 M 473.97183,360.6128 c 0,19.19141 34.74218,82.96094 34.74218,82.96094 0,0 -34.74218,-63.76953 -34.74218,-82.96094 z m 0,0"
         id="path43700" />
    </clipPath>
    <radialGradient
       id="radial13"
       gradientUnits="userSpaceOnUse"
       cx="0"
       cy="0"
       fx="0"
       fy="0"
       r="87.219002"
       gradientTransform="matrix(-4.58616e-8,1,1,4.58616e-8,508.12683,340.06097)">
      <stop
         offset="0"
         style="stop-color:rgb(47.0047%,78.09906%,19.656372%);stop-opacity:1;"
         id="stop43703" />
      <stop
         offset="0.015625"
         style="stop-color:rgb(46.784973%,77.867126%,19.500732%);stop-opacity:1;"
         id="stop43705" />
      <stop
         offset="0.0195312"
         style="stop-color:rgb(46.694946%,77.770996%,19.380188%);stop-opacity:1;"
         id="stop43707" />
      <stop
         offset="0.0234375"
         style="stop-color:rgb(46.607971%,77.676392%,19.256592%);stop-opacity:1;"
         id="stop43709" />
      <stop
         offset="0.0273438"
         style="stop-color:rgb(46.430969%,77.490234%,19.152832%);stop-opacity:1;"
         id="stop43711" />
      <stop
         offset="0.0390625"
         style="stop-color:rgb(46.168518%,77.218628%,19.093323%);stop-opacity:1;"
         id="stop43713" />
      <stop
         offset="0.0507812"
         style="stop-color:rgb(45.993042%,77.037048%,19.013977%);stop-opacity:1;"
         id="stop43715" />
      <stop
         offset="0.0546875"
         style="stop-color:rgb(45.904541%,76.942444%,18.893433%);stop-opacity:1;"
         id="stop43717" />
      <stop
         offset="0.0585938"
         style="stop-color:rgb(45.817566%,76.847839%,18.771362%);stop-opacity:1;"
         id="stop43719" />
      <stop
         offset="0.0625"
         style="stop-color:rgb(45.767212%,76.74408%,18.695068%);stop-opacity:1;"
         id="stop43721" />
      <stop
         offset="0.0664062"
         style="stop-color:rgb(45.770264%,76.626587%,18.681335%);stop-opacity:1;"
         id="stop43723" />
      <stop
         offset="0.0703125"
         style="stop-color:rgb(45.787048%,76.506042%,18.682861%);stop-opacity:1;"
         id="stop43725" />
      <stop
         offset="0.0742188"
         style="stop-color:rgb(45.802307%,76.385498%,18.684387%);stop-opacity:1;"
         id="stop43727" />
      <stop
         offset="0.078125"
         style="stop-color:rgb(45.750427%,76.266479%,18.678284%);stop-opacity:1;"
         id="stop43729" />
      <stop
         offset="0.0820312"
         style="stop-color:rgb(45.600891%,76.148987%,18.664551%);stop-opacity:1;"
         id="stop43731" />
      <stop
         offset="0.0859375"
         style="stop-color:rgb(45.41626%,76.031494%,18.647766%);stop-opacity:1;"
         id="stop43733" />
      <stop
         offset="0.0898438"
         style="stop-color:rgb(45.23468%,75.914001%,18.630981%);stop-opacity:1;"
         id="stop43735" />
      <stop
         offset="0.09375"
         style="stop-color:rgb(44.993591%,75.718689%,18.658447%);stop-opacity:1;"
         id="stop43737" />
      <stop
         offset="0.105469"
         style="stop-color:rgb(44.715881%,75.447083%,18.621826%);stop-opacity:1;"
         id="stop43739" />
      <stop
         offset="0.117188"
         style="stop-color:rgb(44.541931%,75.267029%,18.490601%);stop-opacity:1;"
         id="stop43741" />
      <stop
         offset="0.121094"
         style="stop-color:rgb(44.369507%,75.085449%,18.363953%);stop-opacity:1;"
         id="stop43743" />
      <stop
         offset="0.132812"
         style="stop-color:rgb(44.111633%,74.809265%,18.309021%);stop-opacity:1;"
         id="stop43745" />
      <stop
         offset="0.144531"
         style="stop-color:rgb(43.945312%,74.589539%,18.263245%);stop-opacity:1;"
         id="stop43747" />
      <stop
         offset="0.148438"
         style="stop-color:rgb(43.867493%,74.438477%,18.147278%);stop-opacity:1;"
         id="stop43749" />
      <stop
         offset="0.152344"
         style="stop-color:rgb(43.789673%,74.287415%,18.029785%);stop-opacity:1;"
         id="stop43751" />
      <stop
         offset="0.15625"
         style="stop-color:rgb(43.693542%,74.143982%,17.945862%);stop-opacity:1;"
         id="stop43753" />
      <stop
         offset="0.160156"
         style="stop-color:rgb(43.545532%,74.020386%,17.947388%);stop-opacity:1;"
         id="stop43755" />
      <stop
         offset="0.164062"
         style="stop-color:rgb(43.363953%,73.908997%,18.006897%);stop-opacity:1;"
         id="stop43757" />
      <stop
         offset="0.167969"
         style="stop-color:rgb(43.183899%,73.797607%,18.06488%);stop-opacity:1;"
         id="stop43759" />
      <stop
         offset="0.171875"
         style="stop-color:rgb(43.019104%,73.681641%,18.118286%);stop-opacity:1;"
         id="stop43761" />
      <stop
         offset="0.175781"
         style="stop-color:rgb(42.907715%,73.548889%,18.159485%);stop-opacity:1;"
         id="stop43763" />
      <stop
         offset="0.179688"
         style="stop-color:rgb(42.828369%,73.405457%,18.190002%);stop-opacity:1;"
         id="stop43765" />
      <stop
         offset="0.183594"
         style="stop-color:rgb(42.753601%,73.262024%,18.218994%);stop-opacity:1;"
         id="stop43767" />
      <stop
         offset="0.1875"
         style="stop-color:rgb(42.588806%,73.042297%,18.278503%);stop-opacity:1;"
         id="stop43769" />
      <stop
         offset="0.199219"
         style="stop-color:rgb(42.391968%,72.781372%,18.35022%);stop-opacity:1;"
         id="stop43771" />
      <stop
         offset="0.210938"
         style="stop-color:rgb(42.323303%,72.576904%,18.380737%);stop-opacity:1;"
         id="stop43773" />
      <stop
         offset="0.222656"
         style="stop-color:rgb(42.242432%,72.398376%,18.412781%);stop-opacity:1;"
         id="stop43775" />
      <stop
         offset="0.226562"
         style="stop-color:rgb(42.071533%,72.232056%,18.47229%);stop-opacity:1;"
         id="stop43777" />
      <stop
         offset="0.230469"
         style="stop-color:rgb(41.902161%,72.064209%,18.528748%);stop-opacity:1;"
         id="stop43779" />
      <stop
         offset="0.234375"
         style="stop-color:rgb(41.612244%,71.75293%,18.597412%);stop-opacity:1;"
         id="stop43781" />
      <stop
         offset="0.246094"
         style="stop-color:rgb(41.247559%,71.337891%,18.658447%);stop-opacity:1;"
         id="stop43783" />
      <stop
         offset="0.257812"
         style="stop-color:rgb(41.001892%,71.069336%,18.711853%);stop-opacity:1;"
         id="stop43785" />
      <stop
         offset="0.265625"
         style="stop-color:rgb(40.837097%,70.878601%,18.768311%);stop-opacity:1;"
         id="stop43787" />
      <stop
         offset="0.273438"
         style="stop-color:rgb(40.682983%,70.628357%,18.824768%);stop-opacity:1;"
         id="stop43789" />
      <stop
         offset="0.28125"
         style="stop-color:rgb(40.530396%,70.373535%,18.881226%);stop-opacity:1;"
         id="stop43791" />
      <stop
         offset="0.289062"
         style="stop-color:rgb(40.370178%,70.176697%,18.936157%);stop-opacity:1;"
         id="stop43793" />
      <stop
         offset="0.296875"
         style="stop-color:rgb(40.202332%,70.013428%,18.992615%);stop-opacity:1;"
         id="stop43795" />
      <stop
         offset="0.304688"
         style="stop-color:rgb(40.036011%,69.850159%,19.047546%);stop-opacity:1;"
         id="stop43797" />
      <stop
         offset="0.3125"
         style="stop-color:rgb(39.868164%,69.68689%,19.104004%);stop-opacity:1;"
         id="stop43799" />
      <stop
         offset="0.320312"
         style="stop-color:rgb(39.701843%,69.523621%,19.15741%);stop-opacity:1;"
         id="stop43801" />
      <stop
         offset="0.328125"
         style="stop-color:rgb(39.523315%,69.342041%,19.207764%);stop-opacity:1;"
         id="stop43803" />
      <stop
         offset="0.335938"
         style="stop-color:rgb(39.31427%,69.099426%,19.236755%);stop-opacity:1;"
         id="stop43805" />
      <stop
         offset="0.34375"
         style="stop-color:rgb(39.117432%,68.844604%,19.252014%);stop-opacity:1;"
         id="stop43807" />
      <stop
         offset="0.351562"
         style="stop-color:rgb(39.048767%,68.67218%,19.256592%);stop-opacity:1;"
         id="stop43809" />
      <stop
         offset="0.359375"
         style="stop-color:rgb(39.044189%,68.553162%,19.264221%);stop-opacity:1;"
         id="stop43811" />
      <stop
         offset="0.367188"
         style="stop-color:rgb(38.948059%,68.408203%,19.297791%);stop-opacity:1;"
         id="stop43813" />
      <stop
         offset="0.375"
         style="stop-color:rgb(38.774109%,68.234253%,19.348145%);stop-opacity:1;"
         id="stop43815" />
      <stop
         offset="0.382812"
         style="stop-color:rgb(38.461304%,67.875671%,19.389343%);stop-opacity:1;"
         id="stop43817" />
      <stop
         offset="0.398438"
         style="stop-color:rgb(38.156128%,67.529297%,19.43512%);stop-opacity:1;"
         id="stop43819" />
      <stop
         offset="0.40625"
         style="stop-color:rgb(37.992859%,67.36145%,19.488525%);stop-opacity:1;"
         id="stop43821" />
      <stop
         offset="0.414062"
         style="stop-color:rgb(37.843323%,67.137146%,19.540405%);stop-opacity:1;"
         id="stop43823" />
      <stop
         offset="0.421875"
         style="stop-color:rgb(37.693787%,66.867065%,19.589233%);stop-opacity:1;"
         id="stop43825" />
      <stop
         offset="0.429688"
         style="stop-color:rgb(37.394714%,66.465759%,19.628906%);stop-opacity:1;"
         id="stop43827" />
      <stop
         offset="0.445312"
         style="stop-color:rgb(37.010193%,66.043091%,19.696045%);stop-opacity:1;"
         id="stop43829" />
      <stop
         offset="0.460938"
         style="stop-color:rgb(36.691284%,65.72876%,19.796753%);stop-opacity:1;"
         id="stop43831" />
      <stop
         offset="0.476562"
         style="stop-color:rgb(36.489868%,65.34729%,19.804382%);stop-opacity:1;"
         id="stop43833" />
      <stop
         offset="0.492188"
         style="stop-color:rgb(36.437988%,64.953613%,19.743347%);stop-opacity:1;"
         id="stop43835" />
      <stop
         offset="0.5"
         style="stop-color:rgb(36.416626%,64.620972%,19.700623%);stop-opacity:1;"
         id="stop43837" />
      <stop
         offset="0.507812"
         style="stop-color:rgb(36.286926%,64.337158%,19.717407%);stop-opacity:1;"
         id="stop43839" />
      <stop
         offset="0.519531"
         style="stop-color:rgb(36.019897%,64.051819%,19.772339%);stop-opacity:1;"
         id="stop43841" />
      <stop
         offset="0.53125"
         style="stop-color:rgb(35.719299%,63.710022%,19.807434%);stop-opacity:1;"
         id="stop43843" />
      <stop
         offset="0.542969"
         style="stop-color:rgb(35.449219%,63.421631%,19.859314%);stop-opacity:1;"
         id="stop43845" />
      <stop
         offset="0.554688"
         style="stop-color:rgb(35.169983%,63.117981%,19.90509%);stop-opacity:1;"
         id="stop43847" />
      <stop
         offset="0.566406"
         style="stop-color:rgb(34.872437%,62.779236%,19.93866%);stop-opacity:1;"
         id="stop43849" />
      <stop
         offset="0.578125"
         style="stop-color:rgb(34.609985%,62.5%,19.99054%);stop-opacity:1;"
         id="stop43851" />
      <stop
         offset="0.589844"
         style="stop-color:rgb(34.320068%,62.176514%,20.027161%);stop-opacity:1;"
         id="stop43853" />
      <stop
         offset="0.601562"
         style="stop-color:rgb(33.996582%,61.787415%,20.037842%);stop-opacity:1;"
         id="stop43855" />
      <stop
         offset="0.613281"
         style="stop-color:rgb(33.74176%,61.416626%,20.028687%);stop-opacity:1;"
         id="stop43857" />
      <stop
         offset="0.625"
         style="stop-color:rgb(33.61969%,61.077881%,19.98291%);stop-opacity:1;"
         id="stop43859" />
      <stop
         offset="0.636719"
         style="stop-color:rgb(33.572388%,60.809326%,19.929504%);stop-opacity:1;"
         id="stop43861" />
      <stop
         offset="0.644531"
         style="stop-color:rgb(33.52356%,60.601807%,19.895935%);stop-opacity:1;"
         id="stop43863" />
      <stop
         offset="0.652344"
         style="stop-color:rgb(33.416748%,60.427856%,19.90509%);stop-opacity:1;"
         id="stop43865" />
      <stop
         offset="0.660156"
         style="stop-color:rgb(33.259583%,60.273743%,19.949341%);stop-opacity:1;"
         id="stop43867" />
      <stop
         offset="0.667969"
         style="stop-color:rgb(33.073425%,60.064697%,19.970703%);stop-opacity:1;"
         id="stop43869" />
      <stop
         offset="0.675781"
         style="stop-color:rgb(32.861328%,59.812927%,19.976807%);stop-opacity:1;"
         id="stop43871" />
      <stop
         offset="0.683594"
         style="stop-color:rgb(32.652283%,59.561157%,19.979858%);stop-opacity:1;"
         id="stop43873" />
      <stop
         offset="0.691406"
         style="stop-color:rgb(32.337952%,59.185791%,19.987488%);stop-opacity:1;"
         id="stop43875" />
      <stop
         offset="0.707031"
         style="stop-color:rgb(32.014465%,58.706665%,19.969177%);stop-opacity:1;"
         id="stop43877" />
      <stop
         offset="0.722656"
         style="stop-color:rgb(31.774902%,58.250427%,19.927979%);stop-opacity:1;"
         id="stop43879" />
      <stop
         offset="0.738281"
         style="stop-color:rgb(31.474304%,57.827759%,19.93103%);stop-opacity:1;"
         id="stop43881" />
      <stop
         offset="0.753906"
         style="stop-color:rgb(31.175232%,57.504272%,19.975281%);stop-opacity:1;"
         id="stop43883" />
      <stop
         offset="0.765625"
         style="stop-color:rgb(30.897522%,57.191467%,19.999695%);stop-opacity:1;"
         id="stop43885" />
      <stop
         offset="0.777344"
         style="stop-color:rgb(30.757141%,56.942749%,19.970703%);stop-opacity:1;"
         id="stop43887" />
      <stop
         offset="0.78125"
         style="stop-color:rgb(30.789185%,56.80542%,19.908142%);stop-opacity:1;"
         id="stop43889" />
      <stop
         offset="0.785156"
         style="stop-color:rgb(30.827332%,56.668091%,19.842529%);stop-opacity:1;"
         id="stop43891" />
      <stop
         offset="0.789062"
         style="stop-color:rgb(30.865479%,56.530762%,19.775391%);stop-opacity:1;"
         id="stop43893" />
      <stop
         offset="0.792969"
         style="stop-color:rgb(30.744934%,56.280518%,19.737244%);stop-opacity:1;"
         id="stop43895" />
      <stop
         offset="0.804688"
         style="stop-color:rgb(30.453491%,55.915833%,19.732666%);stop-opacity:1;"
         id="stop43897" />
      <stop
         offset="0.816406"
         style="stop-color:rgb(30.203247%,55.61676%,19.732666%);stop-opacity:1;"
         id="stop43899" />
      <stop
         offset="0.824219"
         style="stop-color:rgb(30.075073%,55.39093%,19.71283%);stop-opacity:1;"
         id="stop43901" />
      <stop
         offset="0.832031"
         style="stop-color:rgb(30.029297%,55.186462%,19.671631%);stop-opacity:1;"
         id="stop43903" />
      <stop
         offset="0.839844"
         style="stop-color:rgb(29.927063%,54.968262%,19.644165%);stop-opacity:1;"
         id="stop43905" />
      <stop
         offset="0.847656"
         style="stop-color:rgb(29.637146%,54.655457%,19.639587%);stop-opacity:1;"
         id="stop43907" />
      <stop
         offset="0.863281"
         style="stop-color:rgb(29.219055%,54.283142%,19.641113%);stop-opacity:1;"
         id="stop43909" />
      <stop
         offset="0.878906"
         style="stop-color:rgb(28.88031%,53.935242%,19.63501%);stop-opacity:1;"
         id="stop43911" />
      <stop
         offset="0.890625"
         style="stop-color:rgb(28.729248%,53.614807%,19.593811%);stop-opacity:1;"
         id="stop43913" />
      <stop
         offset="0.902344"
         style="stop-color:rgb(28.585815%,53.295898%,19.549561%);stop-opacity:1;"
         id="stop43915" />
      <stop
         offset="0.914062"
         style="stop-color:rgb(28.381348%,53.013611%,19.535828%);stop-opacity:1;"
         id="stop43917" />
      <stop
         offset="0.921875"
         style="stop-color:rgb(28.282166%,52.801514%,19.506836%);stop-opacity:1;"
         id="stop43919" />
      <stop
         offset="0.929688"
         style="stop-color:rgb(28.131104%,52.542114%,19.464111%);stop-opacity:1;"
         id="stop43921" />
      <stop
         offset="0.945312"
         style="stop-color:rgb(27.842712%,52.250671%,19.442749%);stop-opacity:1;"
         id="stop43923" />
      <stop
         offset="0.957031"
         style="stop-color:rgb(27.593994%,52.006531%,19.438171%);stop-opacity:1;"
         id="stop43925" />
      <stop
         offset="0.964844"
         style="stop-color:rgb(27.310181%,51.66626%,19.430542%);stop-opacity:1;"
         id="stop43927" />
      <stop
         offset="0.980469"
         style="stop-color:rgb(27.055359%,51.306152%,19.400024%);stop-opacity:1;"
         id="stop43929" />
      <stop
         offset="0.988281"
         style="stop-color:rgb(26.968384%,51.101685%,19.352722%);stop-opacity:1;"
         id="stop43931" />
      <stop
         offset="0.992188"
         style="stop-color:rgb(26.907349%,50.881958%,19.284058%);stop-opacity:1;"
         id="stop43933" />
      <stop
         offset="1"
         style="stop-color:rgb(26.864624%,50.733948%,19.239807%);stop-opacity:1;"
         id="stop43935" />
    </radialGradient>
    <clipPath
       id="clip67">
      <path
         inkscape:connector-curvature="0"
         d="m 480,333 57,0 0,57 -57,0 z m 0,0"
         id="path43938" />
    </clipPath>
    <clipPath
       id="clip68">
      <path
         inkscape:connector-curvature="0"
         d="m 480.70703,361.32422 c 0,12.90625 8.73047,23.76953 20.60547,27.01953 -8.58203,-2.35156 -15.51953,-8.68359 -18.70703,-16.88281 3.91797,1.01562 8.02344,1.5625 12.25781,1.5625 15.50391,0 29.30859,-7.26953 38.20703,-18.59375 -4.0039,-9.5 -13.39844,-16.16797 -24.35547,-16.16797 -14.04297,0 -25.52343,10.95703 -26.36328,24.78906 -0.0351,-0.53906 -0.0547,-1.08203 -0.0547,-1.62891 0,-14.59375 11.82813,-26.42187 26.41797,-26.42187 11.78125,0 21.76172,7.71094 25.16797,18.36328 0.39844,-0.53516 0.78125,-1.07422 1.15625,-1.625 0.88672,2.44141 1.44922,5.03906 1.625,7.73828 -0.94922,-14.60937 -13.10156,-26.16015 -27.94922,-26.16015 -15.46875,0 -28.00781,12.53906 -28.00781,28.00781 m 55.95703,-1.83985 c 0,-0.004 0,-0.004 0,-0.008 0,0.004 0,0.008 0,0.008 m 0.008,0.125 c -0.004,-0.043 -0.008,-0.082 -0.008,-0.125 0,0.043 0.004,0.0859 0.008,0.125 m 0,0.0195 c 0,-0.008 0,-0.0117 0,-0.0195 0,0.008 0,0.0117 0,0.0195 m 0.008,0.11328 c -0.004,-0.0391 -0.004,-0.0781 -0.008,-0.11328 0.004,0.0351 0.004,0.0742 0.008,0.11328 m 0,0.0156 c 0,-0.004 0,-0.0117 0,-0.0156 0,0.004 0,0.008 0,0.0156 m 0.008,0.11719 c -0.004,-0.0391 -0.004,-0.0781 -0.008,-0.11719 0.004,0.0391 0.004,0.0781 0.008,0.11719 m 0,0.0273 c 0,-0.008 0,-0.0156 0,-0.0273 0,0.0117 0,0.0195 0,0.0273 m 0.004,0.1211 c 0,-0.0391 0,-0.082 -0.004,-0.1211 0.004,0.043 0.004,0.082 0.004,0.1211 m 0.004,0.0156 c -0.004,-0.008 -0.004,-0.0117 -0.004,-0.0156 0,0.004 0,0.008 0.004,0.0156 m 0.004,0.12891 c 0,-0.043 -0.004,-0.0859 -0.004,-0.12891 0,0.043 0.004,0.0859 0.004,0.12891 m 0,0.0273 c 0,-0.008 0,-0.0156 0,-0.0273 0,0.0117 0,0.0195 0,0.0273 m 0.004,0.125 c 0,-0.0391 0,-0.082 -0.004,-0.125 0.004,0.043 0.004,0.0859 0.004,0.125 m 0.004,0.0156 c 0,-0.008 0,-0.0117 -0.004,-0.0156 0.004,0.004 0.004,0.008 0.004,0.0156 m 0.004,0.12109 c 0,-0.043 -0.004,-0.082 -0.004,-0.12109 0,0.0391 0.004,0.0781 0.004,0.12109 m 0,0.0312 c 0,-0.0117 0,-0.0195 0,-0.0312 0,0.0117 0,0.0195 0,0.0312 m 0.004,0.125 c 0,-0.043 -0.004,-0.082 -0.004,-0.125 0,0.043 0.004,0.082 0.004,0.125 m 0,0.0273 c 0,-0.008 0,-0.0195 0,-0.0273 0,0.008 0,0.0195 0,0.0273 m 0.004,0.13282 c 0,-0.0469 -0.004,-0.0899 -0.004,-0.13282 0,0.043 0.004,0.0859 0.004,0.13282 m 0,0.0312 0,-0.0312 z m 0,0.0391 c 0,-0.0117 0,-0.0195 0,-0.0273 0,0.008 0,0.0195 0,0.0273 m 0,0.0273 c 0,-0.004 0,-0.008 0,-0.0156 0,0.008 0,0.0117 0,0.0156 m 0,0.004 c 0,0 0,-0.004 0,-0.004 0,0 0,0.004 0,0.004 m 0,0.004 c 0,0 0,0 0,-0.004 0,0.004 0,0.004 0,0.004 m 0,0.008 c 0,-0.004 0,-0.004 0,-0.008 0,0.004 0,0.004 0,0.008 m 0,0.0391 0,-0.0273 z m 0,0.0273 c 0,-0.004 0,-0.008 0,-0.0117 0,0.008 0,0.008 0,0.0117 m 0,0.0117 c 0,0 0,-0.008 0,-0.0117 0,0.008 0,0.0117 0,0.0117 m 0,0.043 0,-0.0156 z m 0.004,0.0586 0,-0.0156 z m 0,0.0469 0,-0.0195 z m 0,0.0391 c 0,-0.004 0,-0.0117 0,-0.0195 0,0.008 0,0.0156 0,0.0195 m 0,0.043 0,-0.0156 z m 0,0.043 0,-0.0156 z m 0,0.043 0,-0.0117 z m -28.00782,28.05078 c 15.46875,0 28.00782,-12.54297 28.00782,-28.00781 0,15.46484 -12.53907,28.00781 -28.00782,28.00781 m -7.39062,-0.98828 c -0.004,0 -0.008,0 -0.0117,0 0.004,0 0.008,0 0.0117,0 m 0.23047,0.0625 c -0.0781,-0.0195 -0.15625,-0.043 -0.23047,-0.0625 0.0742,0.0195 0.15234,0.043 0.23047,0.0625 m 0.0234,0.008 c -0.008,-0.004 -0.0156,-0.008 -0.0234,-0.008 0.008,0 0.0156,0.004 0.0234,0.008 m 0.0937,0.0234 c -0.0312,-0.008 -0.0625,-0.0156 -0.0937,-0.0234 0.0312,0.008 0.0625,0.0156 0.0937,0.0234 m 0.0312,0.008 c -0.0117,-0.004 -0.0195,-0.004 -0.0312,-0.008 0.0117,0.004 0.0195,0.004 0.0312,0.008 m 0.082,0.0234 c -0.0234,-0.008 -0.0547,-0.0156 -0.082,-0.0234 0.0274,0.008 0.0547,0.0156 0.082,0.0234 m 0.0547,0.0117 c -0.0195,-0.004 -0.0351,-0.008 -0.0547,-0.0117 0.0195,0.004 0.0351,0.008 0.0547,0.0117 m 0.0508,0.0117 c -0.0195,-0.004 -0.0351,-0.008 -0.0508,-0.0117 0.0156,0.004 0.0312,0.008 0.0508,0.0117 m 0.10157,0.0273 c -0.0352,-0.008 -0.0703,-0.0195 -0.10157,-0.0273 0.0312,0.008 0.0664,0.0195 0.10157,0.0273 m 0.0351,0.008 c -0.0117,-0.004 -0.0234,-0.008 -0.0351,-0.008 0.0117,0 0.0234,0.004 0.0351,0.008 m 0.0664,0.0156 c -0.0234,-0.008 -0.0469,-0.0117 -0.0664,-0.0156 0.0195,0.004 0.043,0.008 0.0664,0.0156 m 0.0234,0.008 c -0.008,-0.004 -0.0156,-0.004 -0.0234,-0.008 0.008,0.004 0.0156,0.004 0.0234,0.008 m 0.13672,0.0312 c -0.043,-0.0117 -0.0899,-0.0234 -0.13672,-0.0312 0.0469,0.008 0.0937,0.0195 0.13672,0.0312 m 0.0117,0.004 c -0.004,-0.004 -0.008,-0.004 -0.0117,-0.004 0.004,0 0.008,0 0.0117,0.004 m 4.19922,0.65625 c -1.43359,-0.11328 -2.83593,-0.33594 -4.19922,-0.65625 1.36329,0.32031 2.76563,0.54297 4.19922,0.65625 m 0.0117,0 c -0.004,0 -0.008,0 -0.0117,0 0.004,0 0.008,0 0.0117,0 m 0.24219,0.0195 c -0.082,-0.008 -0.16016,-0.0117 -0.24219,-0.0195 0.0781,0.008 0.16016,0.0117 0.24219,0.0195 m 0.0352,0 c -0.0117,0 -0.0234,0 -0.0352,0 0.0117,0 0.0234,0 0.0352,0 m 0.10156,0.008 c -0.0352,0 -0.0664,-0.004 -0.10156,-0.008 0.0351,0.004 0.0703,0.008 0.10156,0.008 m 0.0547,0.004 c -0.0156,0 -0.0352,-0.004 -0.0547,-0.004 0.0195,0 0.0391,0.004 0.0547,0.004 m 0.0625,0.004 c -0.0195,0 -0.043,-0.004 -0.0625,-0.004 0.0195,0 0.0391,0.004 0.0625,0.004 m 0.0625,0.004 c -0.0195,0 -0.043,-0.004 -0.0625,-0.004 0.0195,0 0.043,0.004 0.0625,0.004 m 0.0547,0.004 c -0.0156,0 -0.0351,-0.004 -0.0547,-0.004 0.0195,0 0.0391,0.004 0.0547,0.004 m 0.0937,0.004 c -0.0312,0 -0.0625,-0.004 -0.0937,-0.004 0.0312,0 0.0625,0.004 0.0937,0.004 m 0.0391,0.004 c -0.0117,-0.004 -0.0274,-0.004 -0.0391,-0.004 0.0117,0 0.0274,0 0.0391,0.004 m 0.11328,0.004 c -0.0391,0 -0.0742,-0.004 -0.11328,-0.004 0.0391,0 0.0742,0.004 0.11328,0.004 m 0.004,0 c -0.004,0 -0.004,0 -0.004,0 0,0 0,0 0.004,0 m 0,0 0,0 m 0.008,0 c -0.004,0 -0.008,0 -0.008,0 0,0 0.004,0 0.008,0 m 0,0 0,0 m 0.25,0.0117 c -0.082,-0.004 -0.16797,-0.008 -0.25,-0.0117 0.082,0.004 0.16796,0.008 0.25,0.0117 m 0.0234,0 c -0.008,0 -0.0156,0 -0.0234,0 0.008,0 0.0156,0 0.0234,0 m 0.1211,0.008 c -0.0391,-0.004 -0.082,-0.004 -0.1211,-0.008 0.0391,0.004 0.082,0.004 0.1211,0.008 m 0.13672,0.004 c -0.043,-0.004 -0.0899,-0.004 -0.13282,-0.004 0.043,0 0.0899,0 0.13282,0.004 m 0.14062,0 c -0.0469,0 -0.0898,0 -0.13281,0 0.043,0 0.0859,0 0.13281,0 m 0.0703,0.004 c -0.0234,0 -0.043,0 -0.0664,0 0.0234,0 0.043,0 0.0664,0 m 0.0625,0 c -0.0195,0 -0.0391,0 -0.0586,0 0.0195,0 0.0391,0 0.0586,0 m 0.043,0 c -0.0117,0 -0.0195,0 -0.0312,0 0.0117,0 0.0195,0 0.0312,0 m 0,0 c 0.008,0 0.0195,0 0.0312,0 -0.0117,0 -0.0234,0 -0.0312,0 m 0.0391,0.004 c 0.0195,0 0.0391,0 0.0586,0 -0.0195,0 -0.0391,0 -0.0586,0 m 0.12891,0 c -0.0195,0 -0.0391,0 -0.0625,0 0.0195,0 0.043,0 0.0625,0 m 0.0664,0 c -0.0195,0 -0.0352,0 -0.0547,0 0.0195,0 0.0352,0 0.0547,0 m 0.0976,0.004 c -0.004,-0.004 -0.008,-0.004 -0.0117,-0.004 0.004,0 0.008,0 0.0117,0.004 m -0.0859,-0.004 c 0.0195,0 0.0391,0 0.0586,0 -0.0195,0 -0.0391,0 -0.0586,0"
         id="path43941" />
    </clipPath>
    <radialGradient
       id="radial14"
       gradientUnits="userSpaceOnUse"
       cx="0"
       cy="0"
       fx="0"
       fy="0"
       r="28.007601"
       gradientTransform="matrix(1,0,0,-1,508.72064,361.31097)">
      <stop
         offset="0"
         style="stop-color:rgb(100%,100%,100%);stop-opacity:1;"
         id="stop43944" />
      <stop
         offset="0.25"
         style="stop-color:rgb(100%,100%,100%);stop-opacity:1;"
         id="stop43946" />
      <stop
         offset="0.4375"
         style="stop-color:rgb(100%,100%,100%);stop-opacity:1;"
         id="stop43948" />
      <stop
         offset="0.472656"
         style="stop-color:rgb(99.972534%,99.990845%,99.996948%);stop-opacity:1;"
         id="stop43950" />
      <stop
         offset="0.488281"
         style="stop-color:rgb(99.775696%,99.926758%,99.984741%);stop-opacity:1;"
         id="stop43952" />
      <stop
         offset="0.519531"
         style="stop-color:rgb(99.563599%,99.816895%,99.913025%);stop-opacity:1;"
         id="stop43954" />
      <stop
         offset="0.523438"
         style="stop-color:rgb(99.353027%,99.549866%,99.617004%);stop-opacity:1;"
         id="stop43956" />
      <stop
         offset="0.535156"
         style="stop-color:rgb(99.186707%,99.336243%,99.383545%);stop-opacity:1;"
         id="stop43958" />
      <stop
         offset="0.546875"
         style="stop-color:rgb(99.176025%,99.200439%,99.32251%);stop-opacity:1;"
         id="stop43960" />
      <stop
         offset="0.550781"
         style="stop-color:rgb(99.066162%,98.968506%,99.131775%);stop-opacity:1;"
         id="stop43962" />
      <stop
         offset="0.554688"
         style="stop-color:rgb(98.867798%,98.838806%,98.901367%);stop-opacity:1;"
         id="stop43964" />
      <stop
         offset="0.566406"
         style="stop-color:rgb(98.76709%,98.802185%,98.796082%);stop-opacity:1;"
         id="stop43966" />
      <stop
         offset="0.570312"
         style="stop-color:rgb(98.686218%,98.776245%,98.789978%);stop-opacity:1;"
         id="stop43968" />
      <stop
         offset="0.574219"
         style="stop-color:rgb(98.48938%,98.713684%,98.779297%);stop-opacity:1;"
         id="stop43970" />
      <stop
         offset="0.585938"
         style="stop-color:rgb(98.374939%,98.678589%,98.771667%);stop-opacity:1;"
         id="stop43972" />
      <stop
         offset="0.589844"
         style="stop-color:rgb(98.303223%,98.587036%,98.672485%);stop-opacity:1;"
         id="stop43974" />
      <stop
         offset="0.59375"
         style="stop-color:rgb(98.095703%,98.321533%,98.381042%);stop-opacity:1;"
         id="stop43976" />
      <stop
         offset="0.605469"
         style="stop-color:rgb(97.872925%,98.039246%,98.069763%);stop-opacity:1;"
         id="stop43978" />
      <stop
         offset="0.628906"
         style="stop-color:rgb(97.662354%,97.773743%,97.77832%);stop-opacity:1;"
         id="stop43980" />
      <stop
         offset="0.636719"
         style="stop-color:rgb(97.427368%,97.502136%,97.650146%);stop-opacity:1;"
         id="stop43982" />
      <stop
         offset="0.644531"
         style="stop-color:rgb(97.227478%,97.393799%,97.595215%);stop-opacity:1;"
         id="stop43984" />
      <stop
         offset="0.652344"
         style="stop-color:rgb(97.120667%,97.090149%,97.213745%);stop-opacity:1;"
         id="stop43986" />
      <stop
         offset="0.65625"
         style="stop-color:rgb(96.974182%,96.835327%,96.946716%);stop-opacity:1;"
         id="stop43988" />
      <stop
         offset="0.660156"
         style="stop-color:rgb(96.725464%,96.717834%,96.847534%);stop-opacity:1;"
         id="stop43990" />
      <stop
         offset="0.667969"
         style="stop-color:rgb(96.455383%,96.42334%,96.514893%);stop-opacity:1;"
         id="stop43992" />
      <stop
         offset="0.6875"
         style="stop-color:rgb(96.286011%,95.991516%,96.017456%);stop-opacity:1;"
         id="stop43994" />
      <stop
         offset="0.691406"
         style="stop-color:rgb(96.128845%,95.77179%,95.782471%);stop-opacity:1;"
         id="stop43996" />
      <stop
         offset="0.695312"
         style="stop-color:rgb(95.939636%,95.783997%,95.698547%);stop-opacity:1;"
         id="stop43998" />
      <stop
         offset="0.699219"
         style="stop-color:rgb(95.817566%,95.594788%,95.437622%);stop-opacity:1;"
         id="stop44000" />
      <stop
         offset="0.703125"
         style="stop-color:rgb(95.594788%,95.414734%,95.271301%);stop-opacity:1;"
         id="stop44002" />
      <stop
         offset="0.707031"
         style="stop-color:rgb(95.256042%,95.114136%,94.981384%);stop-opacity:1;"
         id="stop44004" />
      <stop
         offset="0.714844"
         style="stop-color:rgb(94.976807%,94.764709%,94.599915%);stop-opacity:1;"
         id="stop44006" />
      <stop
         offset="0.71875"
         style="stop-color:rgb(94.767761%,94.46106%,94.348145%);stop-opacity:1;"
         id="stop44008" />
      <stop
         offset="0.722656"
         style="stop-color:rgb(94.630432%,94.145203%,94.290161%);stop-opacity:1;"
         id="stop44010" />
      <stop
         offset="0.726562"
         style="stop-color:rgb(94.313049%,94.055176%,94.113159%);stop-opacity:1;"
         id="stop44012" />
      <stop
         offset="0.730469"
         style="stop-color:rgb(93.937683%,93.878174%,93.714905%);stop-opacity:1;"
         id="stop44014" />
      <stop
         offset="0.734375"
         style="stop-color:rgb(93.77594%,93.562317%,93.52417%);stop-opacity:1;"
         id="stop44016" />
      <stop
         offset="0.738281"
         style="stop-color:rgb(93.547058%,93.49823%,93.484497%);stop-opacity:1;"
         id="stop44018" />
      <stop
         offset="0.742188"
         style="stop-color:rgb(93.238831%,93.330383%,93.261719%);stop-opacity:1;"
         id="stop44020" />
      <stop
         offset="0.746094"
         style="stop-color:rgb(93.063354%,92.974854%,92.835999%);stop-opacity:1;"
         id="stop44022" />
      <stop
         offset="0.75"
         style="stop-color:rgb(92.935181%,92.63916%,92.510986%);stop-opacity:1;"
         id="stop44024" />
      <stop
         offset="0.753906"
         style="stop-color:rgb(92.669678%,92.384338%,92.3172%);stop-opacity:1;"
         id="stop44026" />
      <stop
         offset="0.757812"
         style="stop-color:rgb(92.390442%,92.350769%,92.127991%);stop-opacity:1;"
         id="stop44028" />
      <stop
         offset="0.761719"
         style="stop-color:rgb(92.245483%,92.094421%,91.744995%);stop-opacity:1;"
         id="stop44030" />
      <stop
         offset="0.765625"
         style="stop-color:rgb(92.219543%,91.630554%,91.505432%);stop-opacity:1;"
         id="stop44032" />
      <stop
         offset="0.769531"
         style="stop-color:rgb(92.033386%,91.438293%,91.43219%);stop-opacity:1;"
         id="stop44034" />
      <stop
         offset="0.773438"
         style="stop-color:rgb(91.604614%,91.374207%,91.098022%);stop-opacity:1;"
         id="stop44036" />
      <stop
         offset="0.777344"
         style="stop-color:rgb(91.19873%,91.148376%,90.661621%);stop-opacity:1;"
         id="stop44038" />
      <stop
         offset="0.78125"
         style="stop-color:rgb(91.036987%,90.809631%,90.394592%);stop-opacity:1;"
         id="stop44040" />
      <stop
         offset="0.785156"
         style="stop-color:rgb(90.905762%,90.480042%,90.156555%);stop-opacity:1;"
         id="stop44042" />
      <stop
         offset="0.789062"
         style="stop-color:rgb(90.621948%,90.103149%,89.842224%);stop-opacity:1;"
         id="stop44044" />
      <stop
         offset="0.792969"
         style="stop-color:rgb(90.306091%,89.755249%,89.646912%);stop-opacity:1;"
         id="stop44046" />
      <stop
         offset="0.796875"
         style="stop-color:rgb(89.997864%,89.553833%,89.588928%);stop-opacity:1;"
         id="stop44048" />
      <stop
         offset="0.800781"
         style="stop-color:rgb(89.689636%,89.326477%,89.387512%);stop-opacity:1;"
         id="stop44050" />
      <stop
         offset="0.804688"
         style="stop-color:rgb(89.378357%,89.041138%,88.929749%);stop-opacity:1;"
         id="stop44052" />
      <stop
         offset="0.808594"
         style="stop-color:rgb(89.074707%,88.88855%,88.438416%);stop-opacity:1;"
         id="stop44054" />
      <stop
         offset="0.8125"
         style="stop-color:rgb(88.790894%,88.775635%,88.056946%);stop-opacity:1;"
         id="stop44056" />
      <stop
         offset="0.816406"
         style="stop-color:rgb(88.650513%,88.565063%,87.704468%);stop-opacity:1;"
         id="stop44058" />
      <stop
         offset="0.820312"
         style="stop-color:rgb(88.508606%,88.237%,87.419128%);stop-opacity:1;"
         id="stop44060" />
      <stop
         offset="0.824219"
         style="stop-color:rgb(88.215637%,87.867737%,87.188721%);stop-opacity:1;"
         id="stop44062" />
      <stop
         offset="0.828125"
         style="stop-color:rgb(87.901306%,87.487793%,86.842346%);stop-opacity:1;"
         id="stop44064" />
      <stop
         offset="0.832031"
         style="stop-color:rgb(87.586975%,87.107849%,86.436462%);stop-opacity:1;"
         id="stop44066" />
      <stop
         offset="0.835938"
         style="stop-color:rgb(87.275696%,86.730957%,86.035156%);stop-opacity:1;"
         id="stop44068" />
      <stop
         offset="0.839844"
         style="stop-color:rgb(86.961365%,86.354065%,85.63385%);stop-opacity:1;"
         id="stop44070" />
      <stop
         offset="0.84375"
         style="stop-color:rgb(86.575317%,85.89325%,85.270691%);stop-opacity:1;"
         id="stop44072" />
      <stop
         offset="0.847656"
         style="stop-color:rgb(86.064148%,85.292053%,84.968567%);stop-opacity:1;"
         id="stop44074" />
      <stop
         offset="0.851562"
         style="stop-color:rgb(85.629272%,84.779358%,84.632874%);stop-opacity:1;"
         id="stop44076" />
      <stop
         offset="0.855469"
         style="stop-color:rgb(85.319519%,84.413147%,84.367371%);stop-opacity:1;"
         id="stop44078" />
      <stop
         offset="0.859375"
         style="stop-color:rgb(85.012817%,84.135437%,84.005737%);stop-opacity:1;"
         id="stop44080" />
      <stop
         offset="0.863281"
         style="stop-color:rgb(84.710693%,83.934021%,83.390808%);stop-opacity:1;"
         id="stop44082" />
      <stop
         offset="0.867188"
         style="stop-color:rgb(84.403992%,83.630371%,82.879639%);stop-opacity:1;"
         id="stop44084" />
      <stop
         offset="0.871094"
         style="stop-color:rgb(84.089661%,83.114624%,82.579041%);stop-opacity:1;"
         id="stop44086" />
      <stop
         offset="0.875"
         style="stop-color:rgb(83.651733%,82.56073%,82.284546%);stop-opacity:1;"
         id="stop44088" />
      <stop
         offset="0.878906"
         style="stop-color:rgb(83.157349%,82.202148%,81.867981%);stop-opacity:1;"
         id="stop44090" />
      <stop
         offset="0.882812"
         style="stop-color:rgb(82.749939%,81.982422%,81.387329%);stop-opacity:1;"
         id="stop44092" />
      <stop
         offset="0.886719"
         style="stop-color:rgb(82.254028%,81.658936%,80.952454%);stop-opacity:1;"
         id="stop44094" />
      <stop
         offset="0.890625"
         style="stop-color:rgb(81.643677%,80.949402%,80.596924%);stop-opacity:1;"
         id="stop44096" />
      <stop
         offset="0.894531"
         style="stop-color:rgb(81.143188%,80.201721%,80.053711%);stop-opacity:1;"
         id="stop44098" />
      <stop
         offset="0.898438"
         style="stop-color:rgb(80.729675%,79.681396%,79.389954%);stop-opacity:1;"
         id="stop44100" />
      <stop
         offset="0.902344"
         style="stop-color:rgb(80.203247%,79.100037%,78.953552%);stop-opacity:1;"
         id="stop44102" />
      <stop
         offset="0.90625"
         style="stop-color:rgb(79.603577%,78.565979%,78.491211%);stop-opacity:1;"
         id="stop44104" />
      <stop
         offset="0.910156"
         style="stop-color:rgb(79.145813%,78.170776%,77.871704%);stop-opacity:1;"
         id="stop44106" />
      <stop
         offset="0.914062"
         style="stop-color:rgb(78.736877%,77.706909%,77.386475%);stop-opacity:1;"
         id="stop44108" />
      <stop
         offset="0.917969"
         style="stop-color:rgb(78.245544%,77.098083%,77.011108%);stop-opacity:1;"
         id="stop44110" />
      <stop
         offset="0.921875"
         style="stop-color:rgb(77.819824%,76.483154%,76.477051%);stop-opacity:1;"
         id="stop44112" />
      <stop
         offset="0.925781"
         style="stop-color:rgb(77.200317%,76.087952%,76.022339%);stop-opacity:1;"
         id="stop44114" />
      <stop
         offset="0.929688"
         style="stop-color:rgb(76.559448%,75.59967%,75.544739%);stop-opacity:1;"
         id="stop44116" />
      <stop
         offset="0.933594"
         style="stop-color:rgb(76.12915%,74.984741%,74.804688%);stop-opacity:1;"
         id="stop44118" />
      <stop
         offset="0.9375"
         style="stop-color:rgb(75.6073%,74.60022%,74.128723%);stop-opacity:1;"
         id="stop44120" />
      <stop
         offset="0.941406"
         style="stop-color:rgb(75.019836%,74.12262%,73.74115%);stop-opacity:1;"
         id="stop44122" />
      <stop
         offset="0.945312"
         style="stop-color:rgb(74.432373%,73.33374%,73.251343%);stop-opacity:1;"
         id="stop44124" />
      <stop
         offset="0.949219"
         style="stop-color:rgb(73.846436%,72.605896%,72.547913%);stop-opacity:1;"
         id="stop44126" />
      <stop
         offset="0.953125"
         style="stop-color:rgb(73.265076%,72.142029%,72.006226%);stop-opacity:1;"
         id="stop44128" />
      <stop
         offset="0.957031"
         style="stop-color:rgb(72.711182%,71.733093%,71.604919%);stop-opacity:1;"
         id="stop44130" />
      <stop
         offset="0.960938"
         style="stop-color:rgb(72.303772%,71.231079%,71.218872%);stop-opacity:1;"
         id="stop44132" />
      <stop
         offset="0.964844"
         style="stop-color:rgb(71.751404%,70.594788%,70.690918%);stop-opacity:1;"
         id="stop44134" />
      <stop
         offset="0.96875"
         style="stop-color:rgb(71.003723%,69.918823%,70.054626%);stop-opacity:1;"
         id="stop44136" />
      <stop
         offset="0.972656"
         style="stop-color:rgb(70.379639%,69.274902%,69.412231%);stop-opacity:1;"
         id="stop44138" />
      <stop
         offset="0.976562"
         style="stop-color:rgb(69.795227%,68.641663%,68.772888%);stop-opacity:1;"
         id="stop44140" />
      <stop
         offset="0.980469"
         style="stop-color:rgb(69.070435%,67.985535%,68.145752%);stop-opacity:1;"
         id="stop44142" />
      <stop
         offset="0.984375"
         style="stop-color:rgb(68.334961%,67.330933%,67.430115%);stop-opacity:1;"
         id="stop44144" />
      <stop
         offset="0.988281"
         style="stop-color:rgb(67.745972%,66.708374%,66.72821%);stop-opacity:1;"
         id="stop44146" />
      <stop
         offset="0.992188"
         style="stop-color:rgb(67.144775%,66.093445%,66.210938%);stop-opacity:1;"
         id="stop44148" />
      <stop
         offset="0.996094"
         style="stop-color:rgb(66.403198%,65.454102%,65.692139%);stop-opacity:1;"
         id="stop44150" />
      <stop
         offset="1"
         style="stop-color:rgb(65.982056%,65.126038%,65.396118%);stop-opacity:1;"
         id="stop44152" />
    </radialGradient>
    <clipPath
       id="clip69">
      <path
         inkscape:connector-curvature="0"
         d="m 482,335 52,0 0,29 -52,0 z m 0,0"
         id="path44155" />
    </clipPath>
    <clipPath
       id="clip70">
      <path
         inkscape:connector-curvature="0"
         d="m 482.29687,361.42187 c 0,0.54688 0.0195,1.08985 0.0547,1.62891 0.83985,-13.83203 12.32031,-24.78906 26.36328,-24.78906 10.95703,0 20.35157,6.66797 24.35547,16.16797 0.27344,-0.35157 0.54688,-0.70703 0.8125,-1.06641 C 530.47656,342.71094 520.49609,335 508.71484,335 c -14.58984,0 -26.41797,11.82812 -26.41797,26.42187"
         id="path44158" />
    </clipPath>
    <radialGradient
       id="radial15"
       gradientUnits="userSpaceOnUse"
       cx="0"
       cy="0"
       fx="0"
       fy="0"
       r="28.007601"
       gradientTransform="matrix(1,0,0,-1,508.72064,361.3266)">
      <stop
         offset="0"
         style="stop-color:rgb(100%,100%,100%);stop-opacity:1;"
         id="stop44161" />
      <stop
         offset="1"
         style="stop-color:rgb(100%,100%,100%);stop-opacity:1;"
         id="stop44163" />
    </radialGradient>
    <clipPath
       id="clip71">
      <path
         inkscape:connector-curvature="0"
         d="m 475,327 68,0 0,36 -68,0 z m 0,0"
         id="path44166" />
    </clipPath>
    <clipPath
       id="clip72">
      <path
         inkscape:connector-curvature="0"
         d="m 475.40625,360.46484 c 0,0.69141 0.0312,1.375 0.0703,2.05469 1.0625,-17.4375 15.53516,-31.25391 33.23828,-31.25391 17.70703,0 32.17969,13.81641 33.23828,31.25391 0.043,-0.67969 0.0703,-1.36328 0.0703,-2.05469 0,-18.39453 -14.91407,-33.30859 -33.3086,-33.30859 -18.39453,0 -33.30859,14.91406 -33.30859,33.30859"
         id="path44169" />
    </clipPath>
    <radialGradient
       id="radial16"
       gradientUnits="userSpaceOnUse"
       cx="0"
       cy="0"
       fx="0"
       fy="0"
       r="87.219002"
       gradientTransform="matrix(-4.58616e-8,1,1,4.58616e-8,508.12683,340.06097)">
      <stop
         offset="0"
         style="stop-color:rgb(72.422791%,87.884521%,32.901001%);stop-opacity:1;"
         id="stop44172" />
      <stop
         offset="0.0078125"
         style="stop-color:rgb(72.232056%,87.826538%,32.9422%);stop-opacity:1;"
         id="stop44174" />
      <stop
         offset="0.0117188"
         style="stop-color:rgb(72.163391%,87.800598%,32.852173%);stop-opacity:1;"
         id="stop44176" />
      <stop
         offset="0.015625"
         style="stop-color:rgb(72.157288%,87.788391%,32.635498%);stop-opacity:1;"
         id="stop44178" />
      <stop
         offset="0.0195312"
         style="stop-color:rgb(72.041321%,87.741089%,32.414246%);stop-opacity:1;"
         id="stop44180" />
      <stop
         offset="0.03125"
         style="stop-color:rgb(71.734619%,87.635803%,32.246399%);stop-opacity:1;"
         id="stop44182" />
      <stop
         offset="0.0429688"
         style="stop-color:rgb(71.353149%,87.506104%,32.058716%);stop-opacity:1;"
         id="stop44184" />
      <stop
         offset="0.0546875"
         style="stop-color:rgb(71.098328%,87.417603%,31.889343%);stop-opacity:1;"
         id="stop44186" />
      <stop
         offset="0.0585938"
         style="stop-color:rgb(70.935059%,87.362671%,31.811523%);stop-opacity:1;"
         id="stop44188" />
      <stop
         offset="0.0625"
         style="stop-color:rgb(70.707703%,87.287903%,31.747437%);stop-opacity:1;"
         id="stop44190" />
      <stop
         offset="0.0664062"
         style="stop-color:rgb(70.452881%,87.205505%,31.689453%);stop-opacity:1;"
         id="stop44192" />
      <stop
         offset="0.0703125"
         style="stop-color:rgb(70.230103%,87.132263%,31.652832%);stop-opacity:1;"
         id="stop44194" />
      <stop
         offset="0.0742188"
         style="stop-color:rgb(69.969177%,87.051392%,31.658936%);stop-opacity:1;"
         id="stop44196" />
      <stop
         offset="0.0859375"
         style="stop-color:rgb(69.784546%,86.985779%,31.526184%);stop-opacity:1;"
         id="stop44198" />
      <stop
         offset="0.0976562"
         style="stop-color:rgb(69.572449%,86.914062%,31.408691%);stop-opacity:1;"
         id="stop44200" />
      <stop
         offset="0.109375"
         style="stop-color:rgb(69.190979%,86.78894%,31.311035%);stop-opacity:1;"
         id="stop44202" />
      <stop
         offset="0.121094"
         style="stop-color:rgb(68.809509%,86.656189%,31.062317%);stop-opacity:1;"
         id="stop44204" />
      <stop
         offset="0.132812"
         style="stop-color:rgb(68.42804%,86.532593%,30.982971%);stop-opacity:1;"
         id="stop44206" />
      <stop
         offset="0.144531"
         style="stop-color:rgb(68.04657%,86.408997%,30.9021%);stop-opacity:1;"
         id="stop44208" />
      <stop
         offset="0.15625"
         style="stop-color:rgb(67.6651%,86.276245%,30.651855%);stop-opacity:1;"
         id="stop44210" />
      <stop
         offset="0.167969"
         style="stop-color:rgb(67.359924%,86.172485%,30.497742%);stop-opacity:1;"
         id="stop44212" />
      <stop
         offset="0.171875"
         style="stop-color:rgb(67.11731%,86.09314%,30.441284%);stop-opacity:1;"
         id="stop44214" />
      <stop
         offset="0.175781"
         style="stop-color:rgb(66.828918%,86.000061%,30.381775%);stop-opacity:1;"
         id="stop44216" />
      <stop
         offset="0.1875"
         style="stop-color:rgb(66.667175%,85.946655%,30.348206%);stop-opacity:1;"
         id="stop44218" />
      <stop
         offset="0.191406"
         style="stop-color:rgb(66.625977%,85.931396%,30.285645%);stop-opacity:1;"
         id="stop44220" />
      <stop
         offset="0.195312"
         style="stop-color:rgb(66.522217%,85.890198%,30.125427%);stop-opacity:1;"
         id="stop44222" />
      <stop
         offset="0.199219"
         style="stop-color:rgb(66.267395%,85.800171%,29.914856%);stop-opacity:1;"
         id="stop44224" />
      <stop
         offset="0.210938"
         style="stop-color:rgb(66.012573%,85.714722%,29.814148%);stop-opacity:1;"
         id="stop44226" />
      <stop
         offset="0.214844"
         style="stop-color:rgb(65.855408%,85.664368%,29.797363%);stop-opacity:1;"
         id="stop44228" />
      <stop
         offset="0.21875"
         style="stop-color:rgb(65.634155%,85.5896%,29.682922%);stop-opacity:1;"
         id="stop44230" />
      <stop
         offset="0.222656"
         style="stop-color:rgb(65.379333%,85.501099%,29.521179%);stop-opacity:1;"
         id="stop44232" />
      <stop
         offset="0.226562"
         style="stop-color:rgb(65.150452%,85.423279%,29.397583%);stop-opacity:1;"
         id="stop44234" />
      <stop
         offset="0.230469"
         style="stop-color:rgb(64.857483%,85.3302%,29.382324%);stop-opacity:1;"
         id="stop44236" />
      <stop
         offset="0.242188"
         style="stop-color:rgb(64.476013%,85.206604%,29.302979%);stop-opacity:1;"
         id="stop44238" />
      <stop
         offset="0.253906"
         style="stop-color:rgb(64.15863%,85.102844%,29.223633%);stop-opacity:1;"
         id="stop44240" />
      <stop
         offset="0.261719"
         style="stop-color:rgb(63.903809%,85.021973%,29.220581%);stop-opacity:1;"
         id="stop44242" />
      <stop
         offset="0.269531"
         style="stop-color:rgb(63.650513%,84.938049%,29.112244%);stop-opacity:1;"
         id="stop44244" />
      <stop
         offset="0.277344"
         style="stop-color:rgb(63.395691%,84.855652%,29.064941%);stop-opacity:1;"
         id="stop44246" />
      <stop
         offset="0.285156"
         style="stop-color:rgb(63.140869%,84.773254%,29.019165%);stop-opacity:1;"
         id="stop44248" />
      <stop
         offset="0.292969"
         style="stop-color:rgb(62.950134%,84.70459%,28.848267%);stop-opacity:1;"
         id="stop44250" />
      <stop
         offset="0.296875"
         style="stop-color:rgb(62.759399%,84.635925%,28.662109%);stop-opacity:1;"
         id="stop44252" />
      <stop
         offset="0.304688"
         style="stop-color:rgb(62.493896%,84.541321%,28.453064%);stop-opacity:1;"
         id="stop44254" />
      <stop
         offset="0.324219"
         style="stop-color:rgb(62.245178%,84.457397%,28.344727%);stop-opacity:1;"
         id="stop44256" />
      <stop
         offset="0.332031"
         style="stop-color:rgb(62.008667%,84.384155%,28.35083%);stop-opacity:1;"
         id="stop44258" />
      <stop
         offset="0.339844"
         style="stop-color:rgb(61.753845%,84.300232%,28.268433%);stop-opacity:1;"
         id="stop44260" />
      <stop
         offset="0.347656"
         style="stop-color:rgb(61.499023%,84.211731%,28.114319%);stop-opacity:1;"
         id="stop44262" />
      <stop
         offset="0.355469"
         style="stop-color:rgb(61.245728%,84.124756%,27.957153%);stop-opacity:1;"
         id="stop44264" />
      <stop
         offset="0.363281"
         style="stop-color:rgb(60.990906%,84.037781%,27.80304%);stop-opacity:1;"
         id="stop44266" />
      <stop
         offset="0.371094"
         style="stop-color:rgb(60.736084%,83.94928%,27.648926%);stop-opacity:1;"
         id="stop44268" />
      <stop
         offset="0.378906"
         style="stop-color:rgb(60.482788%,83.863831%,27.511597%);stop-opacity:1;"
         id="stop44270" />
      <stop
         offset="0.386719"
         style="stop-color:rgb(60.227966%,83.781433%,27.482605%);stop-opacity:1;"
         id="stop44272" />
      <stop
         offset="0.394531"
         style="stop-color:rgb(59.973145%,83.702087%,27.479553%);stop-opacity:1;"
         id="stop44274" />
      <stop
         offset="0.402344"
         style="stop-color:rgb(59.719849%,83.616638%,27.368164%);stop-opacity:1;"
         id="stop44276" />
      <stop
         offset="0.410156"
         style="stop-color:rgb(59.465027%,83.528137%,27.217102%);stop-opacity:1;"
         id="stop44278" />
      <stop
         offset="0.417969"
         style="stop-color:rgb(59.210205%,83.441162%,27.064514%);stop-opacity:1;"
         id="stop44280" />
      <stop
         offset="0.425781"
         style="stop-color:rgb(58.956909%,83.354187%,26.911926%);stop-opacity:1;"
         id="stop44282" />
      <stop
         offset="0.433594"
         style="stop-color:rgb(58.702087%,83.27179%,26.867676%);stop-opacity:1;"
         id="stop44284" />
      <stop
         offset="0.441406"
         style="stop-color:rgb(58.447266%,83.192444%,26.882935%);stop-opacity:1;"
         id="stop44286" />
      <stop
         offset="0.449219"
         style="stop-color:rgb(58.19397%,83.108521%,26.791382%);stop-opacity:1;"
         id="stop44288" />
      <stop
         offset="0.457031"
         style="stop-color:rgb(57.939148%,83.026123%,26.739502%);stop-opacity:1;"
         id="stop44290" />
      <stop
         offset="0.464844"
         style="stop-color:rgb(57.684326%,82.945251%,26.716614%);stop-opacity:1;"
         id="stop44292" />
      <stop
         offset="0.472656"
         style="stop-color:rgb(57.495117%,82.879639%,26.580811%);stop-opacity:1;"
         id="stop44294" />
      <stop
         offset="0.476562"
         style="stop-color:rgb(57.304382%,82.809448%,26.377869%);stop-opacity:1;"
         id="stop44296" />
      <stop
         offset="0.484375"
         style="stop-color:rgb(57.049561%,82.725525%,26.295471%);stop-opacity:1;"
         id="stop44298" />
      <stop
         offset="0.492188"
         style="stop-color:rgb(56.794739%,82.644653%,26.278687%);stop-opacity:1;"
         id="stop44300" />
      <stop
         offset="0.5"
         style="stop-color:rgb(56.541443%,82.559204%,26.15509%);stop-opacity:1;"
         id="stop44302" />
      <stop
         offset="0.507812"
         style="stop-color:rgb(56.222534%,82.449341%,25.971985%);stop-opacity:1;"
         id="stop44304" />
      <stop
         offset="0.519531"
         style="stop-color:rgb(55.841064%,82.319641%,25.752258%);stop-opacity:1;"
         id="stop44306" />
      <stop
         offset="0.53125"
         style="stop-color:rgb(55.473328%,82.192993%,25.531006%);stop-opacity:1;"
         id="stop44308" />
      <stop
         offset="0.542969"
         style="stop-color:rgb(55.28717%,82.121277%,25.268555%);stop-opacity:1;"
         id="stop44310" />
      <stop
         offset="0.554688"
         style="stop-color:rgb(55.088806%,82.054138%,25.167847%);stop-opacity:1;"
         id="stop44312" />
      <stop
         offset="0.566406"
         style="stop-color:rgb(54.707336%,81.932068%,25.106812%);stop-opacity:1;"
         id="stop44314" />
      <stop
         offset="0.578125"
         style="stop-color:rgb(54.325867%,81.808472%,25.047302%);stop-opacity:1;"
         id="stop44316" />
      <stop
         offset="0.589844"
         style="stop-color:rgb(54.072571%,81.7276%,25.021362%);stop-opacity:1;"
         id="stop44318" />
      <stop
         offset="0.59375"
         style="stop-color:rgb(53.944397%,81.680298%,24.858093%);stop-opacity:1;"
         id="stop44320" />
      <stop
         offset="0.597656"
         style="stop-color:rgb(53.817749%,81.63147%,24.681091%);stop-opacity:1;"
         id="stop44322" />
      <stop
         offset="0.601562"
         style="stop-color:rgb(53.691101%,81.585693%,24.546814%);stop-opacity:1;"
         id="stop44324" />
      <stop
         offset="0.605469"
         style="stop-color:rgb(53.436279%,81.500244%,24.430847%);stop-opacity:1;"
         id="stop44326" />
      <stop
         offset="0.617188"
         style="stop-color:rgb(53.05481%,81.378174%,24.380493%);stop-opacity:1;"
         id="stop44328" />
      <stop
         offset="0.628906"
         style="stop-color:rgb(52.737427%,81.27594%,24.328613%);stop-opacity:1;"
         id="stop44330" />
      <stop
         offset="0.636719"
         style="stop-color:rgb(52.482605%,81.188965%,24.189758%);stop-opacity:1;"
         id="stop44332" />
      <stop
         offset="0.644531"
         style="stop-color:rgb(52.229309%,81.10199%,24.049377%);stop-opacity:1;"
         id="stop44334" />
      <stop
         offset="0.652344"
         style="stop-color:rgb(51.974487%,81.016541%,23.910522%);stop-opacity:1;"
         id="stop44336" />
      <stop
         offset="0.660156"
         style="stop-color:rgb(51.719666%,80.932617%,23.843384%);stop-opacity:1;"
         id="stop44338" />
      <stop
         offset="0.667969"
         style="stop-color:rgb(51.46637%,80.854797%,23.866272%);stop-opacity:1;"
         id="stop44340" />
      <stop
         offset="0.675781"
         style="stop-color:rgb(51.211548%,80.7724%,23.817444%);stop-opacity:1;"
         id="stop44342" />
      <stop
         offset="0.683594"
         style="stop-color:rgb(50.956726%,80.685425%,23.678589%);stop-opacity:1;"
         id="stop44344" />
      <stop
         offset="0.691406"
         style="stop-color:rgb(50.70343%,80.599976%,23.54126%);stop-opacity:1;"
         id="stop44346" />
      <stop
         offset="0.699219"
         style="stop-color:rgb(50.448608%,80.513%,23.405457%);stop-opacity:1;"
         id="stop44348" />
      <stop
         offset="0.707031"
         style="stop-color:rgb(50.193787%,80.422974%,23.216248%);stop-opacity:1;"
         id="stop44350" />
      <stop
         offset="0.714844"
         style="stop-color:rgb(50.003052%,80.354309%,23.010254%);stop-opacity:1;"
         id="stop44352" />
      <stop
         offset="0.71875"
         style="stop-color:rgb(49.812317%,80.284119%,22.802734%);stop-opacity:1;"
         id="stop44354" />
      <stop
         offset="0.726562"
         style="stop-color:rgb(49.559021%,80.195618%,22.613525%);stop-opacity:1;"
         id="stop44356" />
      <stop
         offset="0.734375"
         style="stop-color:rgb(49.304199%,80.11322%,22.575378%);stop-opacity:1;"
         id="stop44358" />
      <stop
         offset="0.742188"
         style="stop-color:rgb(49.049377%,80.030823%,22.520447%);stop-opacity:1;"
         id="stop44360" />
      <stop
         offset="0.75"
         style="stop-color:rgb(48.858643%,79.960632%,22.302246%);stop-opacity:1;"
         id="stop44362" />
      <stop
         offset="0.753906"
         style="stop-color:rgb(48.731995%,79.908752%,22.029114%);stop-opacity:1;"
         id="stop44364" />
      <stop
         offset="0.757812"
         style="stop-color:rgb(48.561096%,79.844666%,21.841431%);stop-opacity:1;"
         id="stop44366" />
      <stop
         offset="0.761719"
         style="stop-color:rgb(48.327637%,79.768372%,21.774292%);stop-opacity:1;"
         id="stop44368" />
      <stop
         offset="0.765625"
         style="stop-color:rgb(48.072815%,79.6875%,21.7453%);stop-opacity:1;"
         id="stop44370" />
      <stop
         offset="0.769531"
         style="stop-color:rgb(47.85614%,79.61731%,21.705627%);stop-opacity:1;"
         id="stop44372" />
      <stop
         offset="0.773438"
         style="stop-color:rgb(47.703552%,79.566956%,21.647644%);stop-opacity:1;"
         id="stop44374" />
      <stop
         offset="0.777344"
         style="stop-color:rgb(47.576904%,79.524231%,21.582031%);stop-opacity:1;"
         id="stop44376" />
      <stop
         offset="0.78125"
         style="stop-color:rgb(47.450256%,79.47998%,21.490479%);stop-opacity:1;"
         id="stop44378" />
      <stop
         offset="0.785156"
         style="stop-color:rgb(47.322083%,79.432678%,21.348572%);stop-opacity:1;"
         id="stop44380" />
      <stop
         offset="0.789062"
         style="stop-color:rgb(47.195435%,79.385376%,21.182251%);stop-opacity:1;"
         id="stop44382" />
      <stop
         offset="0.792969"
         style="stop-color:rgb(46.940613%,79.301453%,21.096802%);stop-opacity:1;"
         id="stop44384" />
      <stop
         offset="0.804688"
         style="stop-color:rgb(46.687317%,79.220581%,21.076965%);stop-opacity:1;"
         id="stop44386" />
      <stop
         offset="0.808594"
         style="stop-color:rgb(46.560669%,79.176331%,20.977783%);stop-opacity:1;"
         id="stop44388" />
      <stop
         offset="0.8125"
         style="stop-color:rgb(46.432495%,79.129028%,20.812988%);stop-opacity:1;"
         id="stop44390" />
      <stop
         offset="0.816406"
         style="stop-color:rgb(46.24176%,79.063416%,20.692444%);stop-opacity:1;"
         id="stop44392" />
      <stop
         offset="0.824219"
         style="stop-color:rgb(45.988464%,78.982544%,20.664978%);stop-opacity:1;"
         id="stop44394" />
      <stop
         offset="0.832031"
         style="stop-color:rgb(45.797729%,78.916931%,20.541382%);stop-opacity:1;"
         id="stop44396" />
      <stop
         offset="0.835938"
         style="stop-color:rgb(45.669556%,78.863525%,20.275879%);stop-opacity:1;"
         id="stop44398" />
      <stop
         offset="0.839844"
         style="stop-color:rgb(45.478821%,78.793335%,20.045471%);stop-opacity:1;"
         id="stop44400" />
      <stop
         offset="0.847656"
         style="stop-color:rgb(45.225525%,78.710938%,19.984436%);stop-opacity:1;"
         id="stop44402" />
      <stop
         offset="0.855469"
         style="stop-color:rgb(44.970703%,78.630066%,19.960022%);stop-opacity:1;"
         id="stop44404" />
      <stop
         offset="0.863281"
         style="stop-color:rgb(44.715881%,78.544617%,19.8349%);stop-opacity:1;"
         id="stop44406" />
      <stop
         offset="0.871094"
         style="stop-color:rgb(44.462585%,78.459167%,19.709778%);stop-opacity:1;"
         id="stop44408" />
      <stop
         offset="0.878906"
         style="stop-color:rgb(44.143677%,78.35083%,19.555664%);stop-opacity:1;"
         id="stop44410" />
      <stop
         offset="0.890625"
         style="stop-color:rgb(43.890381%,78.263855%,19.393921%);stop-opacity:1;"
         id="stop44412" />
      <stop
         offset="0.894531"
         style="stop-color:rgb(43.762207%,78.216553%,19.244385%);stop-opacity:1;"
         id="stop44414" />
      <stop
         offset="0.898438"
         style="stop-color:rgb(43.507385%,78.129578%,19.088745%);stop-opacity:1;"
         id="stop44416" />
      <stop
         offset="0.910156"
         style="stop-color:rgb(43.190002%,78.025818%,18.995667%);stop-opacity:1;"
         id="stop44418" />
      <stop
         offset="0.917969"
         style="stop-color:rgb(42.999268%,77.961731%,18.894958%);stop-opacity:1;"
         id="stop44420" />
      <stop
         offset="0.921875"
         style="stop-color:rgb(42.808533%,77.893066%,18.70575%);stop-opacity:1;"
         id="stop44422" />
      <stop
         offset="0.929688"
         style="stop-color:rgb(42.518616%,77.79541%,18.57605%);stop-opacity:1;"
         id="stop44424" />
      <stop
         offset="0.945312"
         style="stop-color:rgb(42.268372%,77.709961%,18.432617%);stop-opacity:1;"
         id="stop44426" />
      <stop
         offset="0.957031"
         style="stop-color:rgb(42.056274%,77.636719%,18.263245%);stop-opacity:1;"
         id="stop44428" />
      <stop
         offset="0.964844"
         style="stop-color:rgb(41.802979%,77.555847%,18.255615%);stop-opacity:1;"
         id="stop44430" />
      <stop
         offset="0.972656"
         style="stop-color:rgb(41.48407%,77.461243%,18.356323%);stop-opacity:1;"
         id="stop44432" />
      <stop
         offset="0.984375"
         style="stop-color:rgb(41.166687%,77.366638%,18.455505%);stop-opacity:1;"
         id="stop44434" />
      <stop
         offset="0.992188"
         style="stop-color:rgb(40.913391%,77.29187%,18.534851%);stop-opacity:1;"
         id="stop44436" />
      <stop
         offset="1"
         style="stop-color:rgb(40.785217%,77.253723%,18.574524%);stop-opacity:1;"
         id="stop44438" />
    </radialGradient>
    <clipPath
       id="clip73">
      <path
         inkscape:connector-curvature="0"
         d="m 507,360 30,0 0,30 -30,0 z m 0,0"
         id="path44441" />
    </clipPath>
    <clipPath
       id="clip74">
      <path
         inkscape:connector-curvature="0"
         d="m 536.71875,360.81641 0,-0.0117 z m 0,0.0391 0,-0.0117 z m 0,0.043 0,-0.0117 z m 0,0.043 0,-0.0156 z m 0,0.0508 0,-0.0274 z m 0.004,0.0586 c -0.004,-0.0156 -0.004,-0.0273 -0.004,-0.043 0,0.0156 0,0.0274 0.004,0.043 m 0,0.043 0,-0.0273 z m 0,0.0391 0,-0.0195 z m 0,0.0469 0,-0.0274 z m 0,0.043 0,-0.0274 z m 0,0.0469 0,-0.0312 z m 0,0.0547 0,-0.043 z m -28.98047,27.99219 0.004,0 z m 0.13672,0.004 0.008,0 z m 0.14453,0.004 c 0,0 -0.004,-0.004 -0.004,-0.004 0,0 0,0.004 0.004,0.004 m 0.0664,0 0.004,0 z m 0.0625,0 0.0117,0 z m 0.082,0.004 c 0,-0.004 -0.004,-0.004 -0.008,-0.004 0,0 0.008,0.004 0.008,0.004 m 0.0664,0 c -0.004,0 -0.004,0 -0.008,0 0.004,0 0.004,0 0.008,0 m 0.0625,0 c 0.004,0 0.008,0 0.0117,0 -0.004,0 -0.008,0 -0.0117,0 m 0.13672,0 0.0156,0 z m -0.0703,0 0.0117,0 z m 0.21093,0.004 0.0117,0 z m -0.0703,0 0.008,0 z m 0,0"
         id="path44444" />
    </clipPath>
    <clipPath
       id="clip75">
      <path
         inkscape:connector-curvature="0"
         d="m 482,351 55,0 0,39 -55,0 z m 0,0"
         id="path44448" />
    </clipPath>
    <clipPath
       id="clip76">
      <path
         inkscape:connector-curvature="0"
         d="m 533.88281,353.36328 c 0.81641,2.53906 1.25391,5.24609 1.25391,8.05859 0,0.54688 -0.0234,1.08985 -0.0547,1.62891 -0.1875,-3.03906 -0.88672,-5.94531 -2.01172,-8.62109 -8.89844,11.32422 -22.70312,18.59375 -38.20703,18.59375 -4.23437,0 -8.33984,-0.54688 -12.25781,-1.5625 3.95312,10.16797 13.66797,17.46093 25.13672,17.85547 l 0.004,0 c 0.043,0 0.0899,0 0.13282,0.004 l 0.008,0 c 0.043,0 0.0859,0 0.13281,0 0,0 0.004,0.004 0.004,0.004 0.0234,0 0.043,0 0.0664,0 l 0.004,0 c 0.0195,0 0.0391,0 0.0586,0 l 0.0117,0 c 0.0195,0 0.0391,0 0.0625,0 0,0 0.008,0.004 0.008,0.004 0.0195,0 0.0391,0 0.0586,0 0.004,0 0.004,0 0.008,0 0.0195,0 0.043,0 0.0625,0 0.004,0 0.008,0 0.0117,0 0.0195,0 0.0352,0 0.0547,0 l 0.0117,0 c 0.0195,0 0.0391,0 0.0586,0 l 0.0156,0 c 0.0195,0.004 0.0352,0.004 0.0547,0.004 l 0.008,0 c 0.0195,0 0.0391,0 0.0625,0 l 0.0742,0 c 15.46875,0 28.00782,-12.54297 28.00782,-28.00781 l 0,-0.17188 c 0,-0.004 0,-0.0117 0,-0.0195 l 0,-0.082 c -0.004,-0.0156 -0.004,-0.0273 -0.004,-0.043 l 0,-0.043 c 0,-0.004 0,-0.0156 0,-0.0234 l 0,-0.0547 c 0,-0.0117 0,-0.0195 0,-0.0312 l 0,-0.0117 c 0,-0.008 0,-0.0195 0,-0.0273 l 0,-0.043 c -0.0625,-3.16797 -0.65234,-6.20703 -1.67969,-9.03516 -0.375,0.55078 -0.75781,1.08984 -1.15625,1.625"
         id="path44451" />
    </clipPath>
    <clipPath
       id="clip58-2">
      <path
         inkscape:connector-curvature="0"
         d="m 350.54687,361.08984 0,-0.0156 z m 0,0.043 0,-0.0195 z m 0,0.043 c 0,-0.004 0,-0.0117 0,-0.0195 0,0.008 0,0.0156 0,0.0195 m 0,0.0469 0,-0.0274 z m 0,0.0469 0,-0.0312 z m 0,0.0547 0,-0.043 z m -28.98046,27.99219 z m 0.13281,0.004 0.008,0 z m 0.14453,0.004 c 0,-0.004 -0.004,-0.004 -0.004,-0.004 0,0 0.004,0 0.004,0.004 m -0.004,-0.004 0,0 m 0.004,0.004 c 0,0 0,0 0.004,0 z m 0,0 0,0 m 0.0664,0 0.004,0 z m 0.0625,0 0.0117,0 z m 0.0859,0.004 c -0.004,-0.004 -0.008,-0.004 -0.0117,-0.004 0.004,0 0.008,0.004 0.0117,0.004 m 0.0664,0 c -0.004,0 -0.008,0 -0.0117,0 0.004,0 0.008,0 0.0117,0 m 0.0625,0 c 0,0 0.004,0 0.008,0 0,0 -0.008,0 -0.008,0 m 0.13672,0 0.0117,0 z m -0.0703,0 0.008,0 z m 0.20703,0.004 0.0156,0 z m -0.0664,0 0.004,0 z m 0,0"
         id="path43672-7" />
    </clipPath>
    <clipPath
       id="clip77">
      <path
         inkscape:connector-curvature="0"
         d="m 533,353 3,0 0,11 -3,0 z m 0,0"
         id="path44455" />
    </clipPath>
    <clipPath
       id="clip78">
      <path
         inkscape:connector-curvature="0"
         d="m 533.07031,354.42969 c 1.125,2.67578 1.82422,5.58203 2.01172,8.62109 0.0312,-0.53906 0.0547,-1.08203 0.0547,-1.62891 0,-2.8125 -0.4375,-5.51953 -1.25391,-8.05859 -0.26562,0.35938 -0.53906,0.71484 -0.8125,1.06641"
         id="path44458" />
    </clipPath>
    <clipPath
       id="clip79">
      <path
         inkscape:connector-curvature="0"
         d="m 473,358 71,0 0,86 -71,0 z m 0,0"
         id="path44462" />
    </clipPath>
    <clipPath
       id="clip80">
      <path
         inkscape:connector-curvature="0"
         d="m 508.71484,440.38281 c 0,0 -33.26172,-61.05859 -34.6914,-81.65625 -0.0312,0.625 -0.0508,1.25391 -0.0508,1.88672 0,19.19141 34.74218,82.96094 34.74218,82.96094 0,0 34.7461,-63.76953 34.7461,-82.96094 0,-0.63281 -0.0234,-1.26172 -0.0547,-1.88672 -1.42578,20.59766 -34.69141,81.65625 -34.69141,81.65625"
         id="path44465" />
    </clipPath>
    <clipPath
       clipPathUnits="userSpaceOnUse"
       id="clipPath86039">
      <g
         clip-path="url(#clip66)"
         id="g86041"
         style="clip-rule:nonzero;fill:#ef0000;fill-opacity:1"
         transform="matrix(1.2499999,0,0,1.25,-592.46578,-407.33886)">
        <path
           style="fill:#ef0000;fill-opacity:1;fill-rule:nonzero;stroke:none"
           d="m 473.97266,325.87109 69.48828,0 0,117.70313 -69.48828,0 z m 0,0"
           id="path86043"
           inkscape:connector-curvature="0" />
      </g>
    </clipPath>
  </defs>
  <sodipodi:namedview
     id="base"
     pagecolor="#ffffff"
     bordercolor="#666666"
     borderopacity="1.0"
     inkscape:pageopacity="0.0"
     inkscape:pageshadow="2"
     inkscape:zoom="3.959798"
     inkscape:cx="-81.603687"
     inkscape:cy="51.006055"
     inkscape:document-units="px"
     inkscape:current-layer="layer1"
     showgrid="false"
     fit-margin-top="0"
     fit-margin-left="0"
     fit-margin-right="0"
     fit-margin-bottom="0"
     inkscape:window-width="1920"
     inkscape:window-height="1016"
     inkscape:window-x="0"
     inkscape:window-y="27"
     inkscape:window-maximized="1" />
  <metadata
     id="metadata49084">
    <rdf:RDF>
      <cc:Work
         rdf:about="">
        <dc:format>image/svg+xml</dc:format>
        <dc:type
           rdf:resource="http://purl.org/dc/dcmitype/StillImage" />
        <dc:title />
      </cc:Work>
    </rdf:RDF>
  </metadata>
  <g
     inkscape:label="Layer 1"
     inkscape:groupmode="layer"
     id="layer1"
     transform="translate(-496.56983,-767.36947)">
    <ellipse
       style="opacity:1;fill:#ffffff;fill-opacity:1;stroke:#000000;stroke-width:1.87164187;stroke-miterlimit:4;stroke-dasharray:none;stroke-opacity:0"
       id="path109256"
       cx="540.00641"
       cy="812.47235"
       rx="36.682209"
       ry="39.712666" />
    <path
       style="opacity:1;fill:#ef0000;fill-opacity:1;stroke:none;stroke-width:2;stroke-miterlimit:4;stroke-dasharray:none;stroke-opacity:0"
       d="M -1.7851562 -2.5136719 L -1.7851562 149.98633 L 88.927734 149.98633 L 88.927734 -2.5136719 L -1.7851562 -2.5136719 z M 9.5957031 88.539062 L 81.822266 88.539062 L 66.417969 115.2207 L 23.738281 115.2207 L 9.5957031 88.539062 z "
       transform="translate(496.56983,767.36947)"
       id="rect86035"
       clip-path="url(#clipPath86039)" />
    <g
       clip-path="url(#clip68)"
       id="g46341"
       style="clip-rule:nonzero"
       transform="matrix(1.2499999,0,0,1.25,-95.895949,360.03061)">
      <path
         style="fill:url(#radial14);fill-rule:nonzero;stroke:none"
         d="m 480.70703,389.33203 0,-56.01562 56.01563,0 0,56.01562 z m 0,0"
         id="path46343"
         inkscape:connector-curvature="0" />
    </g>
    <g
       clip-path="url(#clip70)"
       id="g46347"
       style="clip-rule:nonzero"
       transform="matrix(1.2499999,0,0,1.25,-95.895949,360.03061)">
      <path
         style="fill:url(#radial15);fill-rule:nonzero;stroke:none"
         d="m 482.29687,363.05078 0,-28.05078 51.58594,0 0,28.05078 z m 0,0"
         id="path46349"
         inkscape:connector-curvature="0" />
    </g>
    <g
       clip-path="url(#clip72)"
       id="g46353"
       style="clip-rule:nonzero;fill:#ff7979;fill-opacity:1"
       transform="matrix(1.2499999,0,0,1.25,-95.895949,360.03061)">
      <path
         style="fill:#ff7979;fill-rule:nonzero;stroke:none;fill-opacity:1"
         d="m 475.40625,327.15625 66.61719,0 0,35.36328 -66.61719,0 z m 0,0"
         id="path46355"
         inkscape:connector-curvature="0" />
    </g>
    <g
       clip-path="url(#clip74)"
       id="g46359"
       style="clip-rule:nonzero"
       transform="matrix(1.2499999,0,0,1.25,-95.895949,360.03061)">
      <use
         xlink:href="#image152901"
         transform="matrix(0.48,0,0,-0.48,506.86224,390.01117)"
         id="use46361"
         x="0"
         y="0"
         width="100%"
         height="100%" />
    </g>
    <g
       clip-path="url(#clip76)"
       id="g46365"
       style="clip-rule:nonzero"
       transform="matrix(1.2499999,0,0,1.25,-95.895949,360.03061)">
      <use
         xlink:href="#image152904"
         transform="matrix(0.48,0,0,-0.48,481.90216,390.01117)"
         id="use46367"
         x="0"
         y="0"
         width="100%"
         height="100%" />
    </g>
    <path
       style="fill:#ef0000;fill-opacity:1;fill-rule:evenodd;stroke:none;stroke-width:0.80000001px;stroke-linecap:butt;stroke-linejoin:miter;stroke-opacity:1"
       d="m 507.4988,817.6971 65.97628,0 c 0,0 -3.30721,8.96375 -14.89896,20.36142 -2.5583,2.51546 -9.57101,4.77509 -17.07102,4.78694 -7.50001,0.0113 -13.36274,-0.90603 -22.71292,-7.32259 C 514.9576,832.8914 507.4988,817.6971 507.4988,817.6971 Z"
       id="path48513"
       inkscape:connector-curvature="0"
       sodipodi:nodetypes="ccszsc" />
    <use
       style="clip-rule:nonzero;fill:#5ba332;fill-opacity:1"
       height="100%"
       width="100%"
       y="0"
       x="0"
       id="use46293-3"
       transform="matrix(0.59999995,0,0,-0.6,537.6818,847.54457)"
       xlink:href="#image152889" />
    <path
       style="fill:#ef0000;fill-opacity:1;fill-rule:nonzero;stroke:none"
       d="m 548.71264,821.39127 c 0,0 -2.17285,-7.80761 -2.4707,-12.01172 0.0341,-1.44043 0.0195,-2.49511 -0.17579,-3.8623 -0.0195,-0.78125 -0.0733,-1.48438 -0.0733,-2.29004 0,-1.52832 -0.16601,-3.06152 -0.16601,-4.43847 0.005,-1.94337 0.30761,-3.44239 1.49413,-4.49219 14.32679,-2.95416 3.79234,-17.84724 -1.3916,-1.57226 -1.875,1.64062 -2.21191,3.95507 -2.20703,6.06445 0,1.01073 0.0635,1.99218 0.11237,2.94921 -0.43946,-0.38085 -0.9375,-0.76171 -1.55274,-1.13769 -1.29882,-0.81544 -2.41211,-1.26954 -3.51073,-1.2793 -15.59064,-1.68764 -5.60856,5.8064 0,2.10449 0.4541,-0.01 1.26952,0.23926 2.36327,0.94727 1.98243,1.37695 2.58789,1.87012 2.8125,3.14453 0.0293,1.20605 0.18066,4.03809 0.18555,4.16504 l 0.0195,0 c 0.30274,4.22851 1.38184,11.70898 1.38184,11.70898 z"
       id="path46315-7"
       inkscape:connector-curvature="0"
       sodipodi:nodetypes="cccscccccccccccccc" />
    <path
       style="fill:#ef0000;fill-opacity:1;fill-rule:nonzero;stroke:none"
       d="m 528.96209,835.16262 c 0,0 2.17285,-7.80761 2.4707,-12.01172 -0.0341,-1.44043 -0.0195,-2.49511 0.17579,-3.8623 0.0195,-0.78125 0.0733,-1.48438 0.0733,-2.29004 0,-1.52832 0.16601,-3.06152 0.16601,-4.43847 -0.005,-1.94337 -0.30761,-3.44239 -1.49414,-4.49219 -14.32679,-2.95416 -3.79234,-17.84724 1.3916,-1.57226 1.875,1.64062 2.21191,3.95507 2.20704,6.06445 0,1.01073 -0.0635,1.99218 -0.11238,2.94921 0.43947,-0.38085 0.9375,-0.76171 1.55274,-1.13769 1.29883,-0.81544 2.41211,-1.26954 3.51074,-1.2793 15.59063,-1.68764 5.60856,5.8064 0,2.10449 -0.4541,-0.01 -1.26953,0.23926 -2.36328,0.94727 -1.98242,1.37695 -2.58788,1.87012 -2.8125,3.14453 -0.0293,1.20605 -0.18066,4.03809 -0.18555,4.16504 l -0.0195,0 c -0.30273,4.22851 -1.38183,11.70898 -1.38183,11.70898 z"
       id="path46315-7-3"
       inkscape:connector-curvature="0"
       sodipodi:nodetypes="cccscccccccccccccc" />
    <g
       clip-path="url(#clip78)"
       id="g46371"
       style="clip-rule:nonzero"
       transform="matrix(1.2499999,0,0,1.25,-95.895949,360.03061)">
      <use
         xlink:href="#image152907"
         transform="matrix(0.48,0,0,-0.48,532.30164,363.61075)"
         id="use46373"
         x="0"
         y="0"
         width="100%"
         height="100%" />
    </g>
    <g
       clip-path="url(#clip80)"
       id="g46377"
       style="clip-rule:nonzero"
       transform="matrix(1.2499999,0,0,1.25,-95.895949,360.03061)">
      <use
         xlink:href="#image152910"
         transform="matrix(0.48,0,0,-0.48,473.26166,444.25085)"
         id="use46379"
         x="0"
         y="0"
         width="100%"
         height="100%" />
    </g>
    <path
       style="fill:#ffffff;fill-opacity:0.65463921;fill-rule:evenodd;stroke:none;stroke-width:1px;stroke-linecap:butt;stroke-linejoin:miter;stroke-opacity:1"
       d="m 527.9984,883.7835 23.93043,0 -1.60771,1.71468 -20.89415,0 z"
       id="path86064"
       inkscape:connector-curvature="0"
       sodipodi:nodetypes="ccccc" />
    <path
       style="fill:#ffffff;fill-opacity:0.44845361;fill-rule:evenodd;stroke:none;stroke-width:1px;stroke-linecap:butt;stroke-linejoin:miter;stroke-opacity:1"
       d="m 514.50004,855.15133 50.88643,0 2.33598,-3.15673 -54.80078,0 z"
       id="path86068"
       inkscape:connector-curvature="0" />
  </g>
</svg>
