<?xml version="1.0" encoding="UTF-8" standalone="no"?>
<!-- Created with Inkscape (http://www.inkscape.org/) -->

<svg
   xmlns:dc="http://purl.org/dc/elements/1.1/"
   xmlns:cc="http://creativecommons.org/ns#"
   xmlns:rdf="http://www.w3.org/1999/02/22-rdf-syntax-ns#"
   xmlns:svg="http://www.w3.org/2000/svg"
   xmlns="http://www.w3.org/2000/svg"
   xmlns:sodipodi="http://sodipodi.sourceforge.net/DTD/sodipodi-0.dtd"
   xmlns:inkscape="http://www.inkscape.org/namespaces/inkscape"
   id="svg5775"
   version="1.1"
   inkscape:version="0.91 r13725"
   width="50"
   height="82"
   viewBox="0 0 50 82"
   sodipodi:docname="marker-icon-2x-alert.svg"
   inkscape:export-filename="/home/philtweir/Work/Flax and Teal/Sync/ORP/preto/ourragingplanet/public/images/leaflet/marker-icon-2x-alert.png"
   inkscape:export-xdpi="89.975899"
   inkscape:export-ydpi="89.975899">
  <metadata
     id="metadata5781">
    <rdf:RDF>
      <cc:Work
         rdf:about="">
        <dc:format>image/svg+xml</dc:format>
        <dc:type
           rdf:resource="http://purl.org/dc/dcmitype/StillImage" />
        <dc:title></dc:title>
      </cc:Work>
    </rdf:RDF>
  </metadata>
  <defs
     id="defs5779" />
  <sodipodi:namedview
     pagecolor="#ffffff"
     bordercolor="#666666"
     borderopacity="1"
     objecttolerance="10"
     gridtolerance="10"
     guidetolerance="10"
     inkscape:pageopacity="0"
     inkscape:pageshadow="2"
     inkscape:window-width="1920"
     inkscape:window-height="1016"
     id="namedview5777"
     showgrid="false"
     inkscape:zoom="2.8780488"
     inkscape:cx="25"
     inkscape:cy="36.936764"
     inkscape:window-x="0"
     inkscape:window-y="27"
     inkscape:window-maximized="1"
     inkscape:current-layer="svg5775" />
  <path
     style="fill:#fe1717;fill-opacity:1;stroke:#ffd0d0;stroke-width:2.02549839;stroke-opacity:1"
     d="M 10.525586,14.675459 8.4530391,30.970436 1.3032784,45.350687 14.084579,52.368721 24.274309,79.645698 36.695474,51.810919 48.043291,45.9164 41.17246,31.36604 39.414149,15.023591 24.94162,17.852167 10.525586,14.675459 Z m 14.86444,11.357824 A 11.84443,13.271184 0 0 1 37.235676,39.305839 11.84443,13.271184 0 0 1 25.390026,52.574434 11.84443,13.271184 0 0 1 13.547905,39.305839 11.84443,13.271184 0 0 1 25.390026,26.033283 Z"
     id="path4224"
     inkscape:connector-curvature="0" />
</svg>
